#time
		#velocity
					# angle between the north direction and the subsatellite subtrack: 347° eastwards from the northward direction
								# lat
											# lon
0.00	0.68437E+04	0.34773E+03	0.19006E+02	0.29452E+03
0.00	0.68438E+04	0.34773E+03	0.19066E+02	0.29451E+03
0.00	0.68439E+04	0.34772E+03	0.19127E+02	0.29449E+03
0.00	0.68440E+04	0.34772E+03	0.19187E+02	0.29448E+03
0.00	0.68441E+04	0.34771E+03	0.19248E+02	0.29447E+03
0.00	0.68509E+04	0.34746E+03	0.19308E+02	0.29445E+03
0.00	0.68429E+04	0.34773E+03	0.19368E+02	0.29444E+03
0.00	0.68431E+04	0.34773E+03	0.19429E+02	0.29442E+03
0.00	0.68433E+04	0.34772E+03	0.19489E+02	0.29441E+03
0.00	0.68435E+04	0.34772E+03	0.19550E+02	0.29440E+03
0.00	0.68436E+04	0.34771E+03	0.19610E+02	0.29438E+03
0.00	0.68438E+04	0.34771E+03	0.19670E+02	0.29437E+03
0.00	0.68439E+04	0.34771E+03	0.19731E+02	0.29435E+03
0.00	0.68440E+04	0.34770E+03	0.19791E+02	0.29434E+03
0.00	0.68441E+04	0.34770E+03	0.19852E+02	0.29433E+03
0.00	0.68509E+04	0.34743E+03	0.19912E+02	0.29431E+03
0.00	0.68429E+04	0.34772E+03	0.19972E+02	0.29430E+03
0.00	0.68431E+04	0.34771E+03	0.20033E+02	0.29428E+03
0.00	0.68432E+04	0.34771E+03	0.20093E+02	0.29427E+03
0.00	0.68434E+04	0.34770E+03	0.20154E+02	0.29426E+03
0.00	0.68436E+04	0.34770E+03	0.20214E+02	0.29424E+03
0.00	0.68437E+04	0.34769E+03	0.20274E+02	0.29423E+03
0.00	0.68438E+04	0.34769E+03	0.20335E+02	0.29421E+03
0.00	0.68439E+04	0.34768E+03	0.20395E+02	0.29420E+03
0.00	0.68440E+04	0.34768E+03	0.20456E+02	0.29419E+03
0.00	0.68508E+04	0.34740E+03	0.20516E+02	0.29417E+03
0.00	0.68428E+04	0.34770E+03	0.20576E+02	0.29416E+03
0.00	0.68430E+04	0.34769E+03	0.20637E+02	0.29414E+03
0.00	0.68432E+04	0.34769E+03	0.20697E+02	0.29413E+03
0.00	0.68434E+04	0.34768E+03	0.20758E+02	0.29412E+03
0.00	0.68435E+04	0.34768E+03	0.20818E+02	0.29410E+03
0.00	0.68437E+04	0.34767E+03	0.20878E+02	0.29409E+03
0.00	0.68438E+04	0.34767E+03	0.20939E+02	0.29407E+03
0.00	0.68439E+04	0.34766E+03	0.20999E+02	0.29406E+03
0.00	0.68440E+04	0.34766E+03	0.21060E+02	0.29405E+03
0.00	0.68440E+04	0.34765E+03	0.21120E+02	0.29403E+03
0.00	0.68441E+04	0.34765E+03	0.21180E+02	0.29402E+03
